
{
	"commands" : "",
	"description" : "",
	"label" : "save",
	"workbook_meta" : 
	{
		"_name" : "c:\\users\\ajm\\desktop\\gold\\gold.wf1",
		"_pages" : 
		[
			
			{
				"_frequency" : "W",
				"_last_update" : [ 737821.8855671296, "02/01/2021 21:15" ],
				"_name" : "Gold",
				"_obj_count" : 16,
				"_objects" : 
				[
					
					{
						"_data_type" : "date",
						"_name" : "@DATE",
						"_obs_max" : [ 737821.0, "02/01/2021" ],
						"_obs_min" : [ 733775.0, "01/04/2010" ],
						"_type" : "INDEX"
					},
					
					{
						"_name" : "ARMAX_1_1",
						"_type" : "EQUATION"
					},
					
					{
						"_name" : "ARMAX_2_2",
						"_type" : "EQUATION"
					},
					
					{
						"_name" : "C",
						"_type" : "COEF"
					},
					
					{
						"_name" : "DATE",
						"_type" : "SERIES"
					},
					
					{
						"_name" : "G11_AX11",
						"_type" : "EQUATION"
					},
					
					{
						"_name" : "GOLD",
						"_type" : "SERIES"
					},
					
					{
						"_name" : "RE",
						"_type" : "SERIES"
					},
					
					{
						"_name" : "RESID",
						"_type" : "SERIES"
					},
					
					{
						"_name" : "RESIDUALS",
						"_type" : "SERIES"
					},
					
					{
						"_name" : "RET_GOLD",
						"_type" : "SERIES"
					},
					
					{
						"_name" : "RET_GOLD_SQ",
						"_type" : "SERIES"
					},
					
					{
						"_name" : "RET_GOLDF",
						"_type" : "SERIES"
					},
					
					{
						"_name" : "RET_SUGAR",
						"_type" : "SERIES"
					},
					
					{
						"_name" : "SMPL_ARMA_1_1",
						"_type" : "EQUATION"
					},
					
					{
						"_name" : "SMPL_ARMAX_1_1",
						"_type" : "EQUATION"
					},
					
					{
						"_name" : "SUGAR",
						"_type" : "SERIES"
					}
				],
				"_obs_count" : 579
			}
		]
	}
}
